{
  "frames": [
    {
      "name": "idle frame 1",
      "frame": {
        "x": 0,
        "y": 0,
        "w": 32,
        "h": 32
      },
      "rotated": false,
      "trimmed": false,
      "spriteSourceSize": {
        "x": 0,
        "y": 0,
        "w": 32,
        "h": 32
      },
      "sourceSize": {
        "w": 32,
        "h": 32
      },
      "duration": 100,
      "origin": {
        "x": 16,
        "y": 24
      }
    },
    {
      "name": "idle frame 2",
      "frame": {
        "x": 32,
        "y": 0,
        "w": 32,
        "h": 32
      },
      "rotated": false,
      "trimmed": false,
      "spriteSourceSize": {
        "x": 0,
        "y": 0,
        "w": 32,
        "h": 32
      },
      "sourceSize": {
        "w": 32,
        "h": 32
      },
      "duration": 100,
      "origin": {
        "x": 16,
        "y": 24
      }
    },
    {
      "name": "walking frame 1",
      "frame": {
        "x": 64,
        "y": 0,
        "w": 32,
        "h": 32
      },
      "rotated": false,
      "trimmed": false,
      "spriteSourceSize": {
        "x": 0,
        "y": 0,
        "w": 32,
        "h": 32
      },
      "sourceSize": {
        "w": 32,
        "h": 32
      },
      "duration": 100,
      "origin": {
        "x": 16,
        "y": 24
      }
    },
    {
      "name": "walking frame 2",
      "frame": {
        "x": 0,
        "y": 0,
        "w": 32,
        "h": 32
      },
      "rotated": false,
      "trimmed": false,
      "spriteSourceSize": {
        "x": 0,
        "y": 0,
        "w": 32,
        "h": 32
      },
      "sourceSize": {
        "w": 32,
        "h": 32
      },
      "duration": 100,
      "origin": {
        "x": 16,
        "y": 24
      }
    },
    {
      "name": "attack 1 frame 1",
      "frame": {
        "x": 96,
        "y": 0,
        "w": 32,
        "h": 32
      },
      "rotated": false,
      "trimmed": false,
      "spriteSourceSize": {
        "x": 0,
        "y": 0,
        "w": 32,
        "h": 32
      },
      "sourceSize": {
        "w": 32,
        "h": 32
      },
      "duration": 100,
      "origin": {
        "x": 16,
        "y": 24
      }
    },
    {
      "name": "attack 1 frame 2",
      "frame": {
        "x": 0,
        "y": 0,
        "w": 32,
        "h": 32
      },
      "rotated": false,
      "trimmed": false,
      "spriteSourceSize": {
        "x": 0,
        "y": 0,
        "w": 32,
        "h": 32
      },
      "sourceSize": {
        "w": 32,
        "h": 32
      },
      "duration": 100,
      "origin": {
        "x": 16,
        "y": 24
      }
    },
    {
      "name": "attack 2 frame 1",
      "frame": {
        "x": 0,
        "y": 32,
        "w": 32,
        "h": 32
      },
      "rotated": false,
      "trimmed": false,
      "spriteSourceSize": {
        "x": 0,
        "y": 0,
        "w": 32,
        "h": 32
      },
      "sourceSize": {
        "w": 32,
        "h": 32
      },
      "duration": 100,
      "origin": {
        "x": 16,
        "y": 24
      }
    },
    {
      "name": "attack 2 frame 2",
      "frame": {
        "x": 0,
        "y": 0,
        "w": 32,
        "h": 32
      },
      "rotated": false,
      "trimmed": false,
      "spriteSourceSize": {
        "x": 0,
        "y": 0,
        "w": 32,
        "h": 32
      },
      "sourceSize": {
        "w": 32,
        "h": 32
      },
      "duration": 100,
      "origin": {
        "x": 16,
        "y": 24
      }
    },
    {
      "name": "attack 3 frame 1",
      "frame": {
        "x": 32,
        "y": 32,
        "w": 32,
        "h": 32
      },
      "rotated": false,
      "trimmed": false,
      "spriteSourceSize": {
        "x": 0,
        "y": 0,
        "w": 32,
        "h": 32
      },
      "sourceSize": {
        "w": 32,
        "h": 32
      },
      "duration": 100,
      "origin": {
        "x": 16,
        "y": 24
      }
    },
    {
      "name": "attack 3 frame 2",
      "frame": {
        "x": 32,
        "y": 32,
        "w": 32,
        "h": 32
      },
      "rotated": false,
      "trimmed": false,
      "spriteSourceSize": {
        "x": 0,
        "y": 0,
        "w": 32,
        "h": 32
      },
      "sourceSize": {
        "w": 32,
        "h": 32
      },
      "duration": 100,
      "origin": {
        "x": 16,
        "y": 24
      }
    },
    {
      "name": "attack 3 frame 3",
      "frame": {
        "x": 32,
        "y": 32,
        "w": 32,
        "h": 32
      },
      "rotated": false,
      "trimmed": false,
      "spriteSourceSize": {
        "x": 0,
        "y": 0,
        "w": 32,
        "h": 32
      },
      "sourceSize": {
        "w": 32,
        "h": 32
      },
      "duration": 100,
      "origin": {
        "x": 16,
        "y": 24
      }
    },
    {
      "name": "attack 3 frame 4",
      "frame": {
        "x": 32,
        "y": 32,
        "w": 32,
        "h": 32
      },
      "rotated": false,
      "trimmed": false,
      "spriteSourceSize": {
        "x": 0,
        "y": 0,
        "w": 32,
        "h": 32
      },
      "sourceSize": {
        "w": 32,
        "h": 32
      },
      "duration": 100,
      "origin": {
        "x": 16,
        "y": 24
      }
    },
    {
      "name": "attack 3 frame 5",
      "frame": {
        "x": 0,
        "y": 0,
        "w": 32,
        "h": 32
      },
      "rotated": false,
      "trimmed": false,
      "spriteSourceSize": {
        "x": 0,
        "y": 0,
        "w": 32,
        "h": 32
      },
      "sourceSize": {
        "w": 32,
        "h": 32
      },
      "duration": 100,
      "origin": {
        "x": 16,
        "y": 24
      }
    },
    {
      "name": "attack 3 frame 6",
      "frame": {
        "x": 0,
        "y": 0,
        "w": 32,
        "h": 32
      },
      "rotated": false,
      "trimmed": false,
      "spriteSourceSize": {
        "x": 0,
        "y": 0,
        "w": 32,
        "h": 32
      },
      "sourceSize": {
        "w": 32,
        "h": 32
      },
      "duration": 100,
      "origin": {
        "x": 16,
        "y": 24
      }
    },
    {
      "name": "attack 3 frame 7",
      "frame": {
        "x": 0,
        "y": 0,
        "w": 32,
        "h": 32
      },
      "rotated": false,
      "trimmed": false,
      "spriteSourceSize": {
        "x": 0,
        "y": 0,
        "w": 32,
        "h": 32
      },
      "sourceSize": {
        "w": 32,
        "h": 32
      },
      "duration": 100,
      "origin": {
        "x": 16,
        "y": 24
      }
    },
    {
      "name": "hurt frame 1",
      "frame": {
        "x": 0,
        "y": 0,
        "w": 32,
        "h": 32
      },
      "rotated": false,
      "trimmed": false,
      "spriteSourceSize": {
        "x": 0,
        "y": 0,
        "w": 32,
        "h": 32
      },
      "sourceSize": {
        "w": 32,
        "h": 32
      },
      "duration": 100,
      "origin": {
        "x": 16,
        "y": 24
      }
    },
    {
      "name": "hurt frame 2",
      "frame": {
        "x": 64,
        "y": 32,
        "w": 32,
        "h": 32
      },
      "rotated": false,
      "trimmed": false,
      "spriteSourceSize": {
        "x": 0,
        "y": 0,
        "w": 32,
        "h": 32
      },
      "sourceSize": {
        "w": 32,
        "h": 32
      },
      "duration": 100,
      "origin": {
        "x": 16,
        "y": 24
      }
    },
    {
      "name": "knockback 1",
      "frame": {
        "x": 96,
        "y": 32,
        "w": 32,
        "h": 32
      },
      "rotated": false,
      "trimmed": false,
      "spriteSourceSize": {
        "x": 0,
        "y": 0,
        "w": 32,
        "h": 32
      },
      "sourceSize": {
        "w": 32,
        "h": 32
      },
      "duration": 100,
      "origin": {
        "x": 16,
        "y": 24
      }
    },
    {
      "name": "knockback 2",
      "frame": {
        "x": 0,
        "y": 64,
        "w": 32,
        "h": 32
      },
      "rotated": false,
      "trimmed": false,
      "spriteSourceSize": {
        "x": 0,
        "y": 0,
        "w": 32,
        "h": 32
      },
      "sourceSize": {
        "w": 32,
        "h": 32
      },
      "duration": 100,
      "origin": {
        "x": 16,
        "y": 24
      }
    },
    {
      "name": "dead frame 1",
      "frame": {
        "x": 32,
        "y": 64,
        "w": 32,
        "h": 32
      },
      "rotated": false,
      "trimmed": false,
      "spriteSourceSize": {
        "x": 0,
        "y": 0,
        "w": 32,
        "h": 32
      },
      "sourceSize": {
        "w": 32,
        "h": 32
      },
      "duration": 100,
      "origin": {
        "x": 16,
        "y": 24
      }
    }
  ]
}
