{
  "animation": [
    {
      "name": "Idle",
      "index": 0,
      "frameCount": 2,
      "framesPerSecond": 4,
      "loop": true
    },
    {
      "name": "Walking",
      "index": 2,
      "frameCount": 2,
      "framesPerSecond": 4,
      "loop": true
    },
    {
      "name": "Attack1",
      "index": 4,
      "frameCount": 2,
      "framesPerSecond": 8,
      "loop": false
    },
    {
      "name": "Attack2",
      "index": 6,
      "frameCount": 2,
      "framesPerSecond": 8,
      "loop": false
    },
    {
      "name": "Attack3",
      "index": 8,
      "frameCount": 2,
      "framesPerSecond": 8,
      "loop": false
    },
    {
      "name": "Hurt",
      "index": 10,
      "frameCount": 4,
      "framesPerSecond": 6,
      "loop": false
    },
    {
      "name": "Knockback",
      "index": 15,
      "frameCount": 1,
      "framesPerSecond": 8,
      "loop": false
    },
    {
      "name": "Dead",
      "index": 15,
      "frameCount": 2,
      "framesPerSecond": 8,
      "loop": false
    },
    {
      "name": "Running",
      "index": 17,
      "frameCount": 2,
      "framesPerSecond": 8,
      "loop": true
    },
    {
      "name": "Victory",
      "index": 19,
      "frameCount": 2,
      "framesPerSecond": 8,
      "loop": true
    }
  ]
}